    1  git --version
    2  ls
    3  cd Dokumenty
    4  mkdir gitdemo
    5  ls
    6  cd gitdemo
    7  git init
    8  git config --locacal --list
    9  git config --local --list
   10  git config --global --list
   11  git config --system --list
   12  git config user.name "Jakub Fišer"
   13  git config user.email "fiser.jakub@yandex.com"
   14  git config --global --list
   15  git config --system --list
   16  git config --loval --list
   17  git config --local --list
   18  git config --local --edit
   19  cd \
   20  cd C:
   21  ls
   22  cd Dokumenty
   23  mkdir gitdemo2
   24  ls
   25  cd gitdemo2
   26  cd .
   27  cd./
   28  cd .\
   29  cd~
   30  cd ~
   31  cd Dokumenty/gitdemo
   32  ls
   33  git status
   34  git status --help
   35  vi ahoj.txt
   36  ls
   37  git add ahoj.txt ahoj2.txt
   38  git add -A
   39  git add .
   40  git status
   41  vi ahoj3.txt
   42  git status
   43  git commit
   44  git status
   45  git status
   46  git commit -a -m "Toto je druhý komit."
   47  git status
   48  git add .
   49  git status
   50  git commit -m "Třetí commit."
   51  git status
   52  vi .gitignore
   53  git status
   54  vi .gitignore
   55  git add .gitignore
   56  git commit -m "Setup gitignore"
   57  git status
   58  git status
   59  git commit -a -m "Můj commit"
   60  git commit --amend -m "Lepší zpráva."
   61  git reset --hard HEAD~1
   62  git log
   63  git log --oneline
   64  git log --stat
   65  git log -p
   66  git log -2
   67  git branch
   68  git branch ficura
   69  git branch
   70  git checkout ficura
   71  vi ahoj4.txt
   72  git add .
   73  git commit -m "První verze fičury."
   74  git status
   75  git checkout master
   76  git branch ficura2
   77  git checkout ficura
   78  vi ficura.txt
   79  ls
   80  git checkout master
   81  ls
   82  git status
   83  git clean
   84  git clean -n
   85  git clean -n -d
   86  git clean -n -d -x
   87  git clean -f
   88  git checkout ficura
   89  git clean -i
   90  git clean i
   91  git clean -i
   92  git branch
   93  git branch -D ficura2
   94  git branch
   95  git log --graph
   96  git log --graph --oneline --decorate
   97  git checkout master
   98  git log --graph --oneline --decorate
   99  gitk
  100  git checkout fivura
  101  git checkout ficura
  102  git branch -m ficuraDEMO
  103  cd /
  104  ls
  105  cd ./
  106  cd .
  107  cd usr/student
  108  cd usr
  109  ls
  110  cd ~
  111  cd Dokumenty
  112  ls
  113  cd gitdemo
  114  git config --get core.worktree
  115  git --git-dir
  116  git --git-dir --help
  117  git remote -v
  118  git remote add 
  119  grow, mark and tweak your common history
  120  grow, mark and tweak your common history
  121  git remote add C:\Users\student\Documents\ProjektDemo
  122  git remote add origin C:\Users\student\Documents\ProjektDemo
  123  git remote -v
  124  git remote set-url origin C:/Users/student/Documents/ProjektDemo
  125  git remote -v
  126  git fetch
  127  git branch -a
  128  git checkout master
  129  git push origin master 
  130  git fetch origin
  131  git branch -r
  132  git branch -a
  133  git checkout origin/ficura
  134  git checkout master
  135  git branch --set-upstream-to origin/master
  136  git checkout ficura
  137  git fetch
  138  git branch -a
  139  git checkout neco 
  140  git branch -a
  141  git checkout master
  142  git fetch origin
  143  git status
  144  git log --oneline
  145  git checkout origin/master
  146  git log --oneline
  147  git log
  148  git checkout master
  149  git rebase origin/master
  150  git log --oneline
  151  git status
  152  git add .
  153  git commit -m "Ještě tvrdší práce uživatele gitdemo1."
  154  git push
  155  git fetch origin
  156  git push
  157  git rebase origin/master
  158  cat Ahoj.txt
  159  git push
  160  git status
  161  git status
  162  git checkout origin/master
  163  git checkout master
  164  git status
  165  git add .
  166  git status
  167  git checkout neco
  168  git checkout master
  169  git stash list
  170  git stash
  171  git stash list
  172  git checkout origin/master
  173  git checkout neco
  174  git stash list
  175  git stash apply stash@{0}
  176  git reset --hard HEAD
  177  git checkout master
  178  git stash save "Anotace"
  179  git stash list
  180  git stash
  181  git status
  182  git stash save "Anotace"
  183  git stash list
  184  git stash show -p
  185  git stash -p
  186  git stash stash@{1} show -p
  187  git stash show stash@{1} -p
  188  git stash drop stash@{1}
  189  git stash list
  190  git stash clear
  191  git stash list
  192  git fetch
  193  git status
  194  history | grep "git " > C:/Kurs/gitdemo1.txt
  195  history > C:/Kurs/gitdemo1komplet.txt
