    1  git --version
    2  ls
    3  cd Dokumenty
    4  mkdir gitdemo
    5  ls
    6  cd gitdemo
    7  git init
    8  git config --locacal --list
    9  git config --local --list
   10  git config --global --list
   11  git config --system --list
   12  git config user.name "Jakub Fišer"
   13  git config user.email "fiser.jakub@yandex.com"
   14  git config --global --list
   15  git config --system --list
   16  git config --loval --list
   17  git config --local --list
   18  git config --local --edit
   19  cd \
   20  cd C:
   21  git init
   22  git remote add origin ~/Documents/ProjektDemo
   23  git remote -v
   24  git config --local use.name "Jan Novák"
   25  git config --local use.email "jan.novak@novak.com"
   26  fit fetch origin
   27  git fetch origin
   28  git remote -v
   29  git branch -a
   30  git config --local --list
   31  git config --local use.name "Jan Novák"
   32  git config --local user.name "Jan Novák"
   33  git config --local user.emain "jan@novak.com"
   34  git config --local --edit
   35  git config --local --list
   36  git config --local --edit
   37  git config --local --list
   38  git config --system --list
   39  git config --global --list
   40  git fetch
   41  git merge origin/master
   42  git checkout ficura
   43  git checkout master
   44  git branch master
   45  git branch ficura
   46  git status
   47  git status
   48  git commit -am "Commit z gitdemo?"
   49  git status
   50  git push
   51  git branch --set-upstream-to origin/master
   52  git fetch origin
   53  git status
   54  git push
   55  git status
   56  git log --oneline
   57  git statsu
   58  git status
   59  git add .
   60  git status
   61  git commit -m "Tvrdá práce na souboru."
   62  git fetch origin
   63  git push
   64  git fetch
   65  history | grep "git " > C:/Kurs/git1.txt
   66  history > C:/Kurs/git1komplet.txt
