    1  git config --local --list
    2  git fetch origin
    3  git fetch origin
    4  git status
    5  git status
    6  git commit -am "Test konfliktu v souboru ahoj.txt na prvním řádku"
    7  git status
    8  git push
    9  git config --local --list
   10  git config --local branch.autosetuprebase true
   11  git config --local --list
   12  git config --local branch.autosetuprebase always
   13  git config --local --list
   14  git fetch
   15  git status
   16  git rebase origin/master
   17  git fetch
   18  git status
   19  git remote -v
   20  git config --local --list
   21  git fetch origin
   22  git clone 
   23  git clone ~/Documents/demomaster
   24  git init --bare
   25  git init
   26  git config user.name "Jan Novák"
   27  git config user.email "jan@novak.com"
   28  git config --local --list
   29  git remote add origin ~/Documents/originmaster
   30  git remote -v
   31  git fetch origin
   32  git branch --set-upstream-to origin/master
   33  git clone ~/Documents/originmaster
   34  mkdir user3
   35  cd user3
   36  git init
   37  git branch
   38  vi Ahoj.txt
   39  git add .
   40  git commit -m "kk"
   41  git branch
   42  git remote --help
   43  git remote -v
   44  vi Ahoj.txt
   45  git status
   46  git add Ahoj.txt
   47  git status
   48  git commit
   49  git push origin master
   50  git branch
   51  git status
   52  git branch
   53  git branch --set-upstream-to origin/master
   54  vi Ahoj.txt
   55  vi Ahoj.txt
   56  git add Ahoj.txt
   57  git commit -m "Druhý pozdrav od usera1" 
   58  git push
   59  git fetch
   60  git rebase origin/master
   61  git mergetool Ahoj.txt
   62  git add .
   63  git rebase --continue
   64  git rebase --abort
   65  git rebase origin/master
   66  git status
   67  git add Ahoj.txt
   68  git rebase --continue
   69  gitk
   70  git fetch
   71  git status
   72  git push
   73  git fetch
   74  git rebase origin/master
   75  git rebase --abort
   76  fit fetch
   77  git fetch
   78  git fetch
   79  git status
   80  git remote -v
   81  git remote add bitbucket 
   82  git remote add bitbucket 
   83  git init
   84  git config user.name "Petr Černý"
   85  git config user.email "petr@cerny.com"
   86  git config --local --list
   87  git branch
   88  git remote -v
   89  git branch show
   90  git remote -v
   91  git remote add origin ~/Documents/originmaster
   92  git remote -v
   93  $ git branch --set-upstream-to origin/master
   94  git branch ficura
   95  git fetch origin
   96  git checkout origin/master
   97  git checkout master
   98  git rebase origin/master
   99  git reset --hard HEAD~1
  100  git branch --set-upstream-to origin/master
  101  ls
  102  vi Ahoj.txt
  103  git status
  104  git add Ahoj.txt
  105  git commit -m "Pozdrav od usera2"
  106  git push
  107  gitk
  108  git fetch
  109  git status
  110  git rebase origin/master
  111  git rebase -i
  112  git rebase -i
  113  git rebase -i HEAD~3
  114  git rebase -i master
  115  git log --oneline
  116  git rebase -i 0a70989
  117  git rebase -i 0a70989
  118  gitk
  119  git log
  120  git push
  121  git push -f
  122  git reflog
  123  git reset --hard c088753
  124  git log
  125  git log --oneline
  126  git reset --hard 319b1ed
  127  git log --oneline
  128  git push -f
  129  git remote -rm origin
  130  git remote remove origin
  131  git remote -v
  132  git init --bare
  133  git branch
  134  git branch ficura
  135  git branch master
  136  git clone https://vsbkurzoop@bitbucket.org/vsbkurzoop/springmena.git
  137  cd springmena
  138  git remote -v
  139  git branch
  140  history > C:/Kurs/historiegitu30012018.txt
